…
To assess how bad Option 2 will be relative to option 1, we looked at
the range of prices for a UPC within a given week (across stores) from
the panel data.

    top4 <- panel_data %>% group_by(upc) %>% summarise(total_sales=sum(dollars)) %>% arrange(desc(total_sales)) %>% slice(1:4)

    top4_data <- panel_data %>% ungroup() %>% filter(upc %in% c(top4$upc)) %>% mutate(avg_price=dollars/units) %>% group_by(upc, avg_price)

    top4_upc <- unique(top4$upc)

    #there are 451 weeks the top 4 upcs are all sold in 
    top4_data %>% group_by(week) %>% distinct(upc) %>% arrange(week) %>% group_by(week) %>% summarise(n=n()) %>% filter(n==4)

    ## # A tibble: 451 x 2
    ##     week     n
    ##    <dbl> <int>
    ##  1  1236     4
    ##  2  1237     4
    ##  3  1238     4
    ##  4  1239     4
    ##  5  1240     4
    ##  6  1241     4
    ##  7  1242     4
    ##  8  1243     4
    ##  9  1244     4
    ## 10  1245     4
    ## # ... with 441 more rows
…
