…
    panel_data %>% group_by(small_category) %>% filter(!small_category %in% c("MISSING", NA)) %>% summarise(count = n()) %>% arrange(desc(count))

    ## # A tibble: 6 x 2
    ##   small_category                     count
    ##   <chr>                              <int>
    ## 1 REGULAR SOFT DRINKS              1062656
    ## 2 LOW CALORIE SOFT DRINKS           838233
    ## 3 SELTZER/TONIC WATER/CLUB SODA     118098
    ## 4 SUGAR/CALORIE REDUCED SOFT DRINK    2184
    ## 5 PLU SOFT DRINKS                      417
    ## 6 PLU - ALL BRANDS SODA                114

    panel_data %>% group_by(parent_co) %>% filter(!parent_co %in% c("MISSING", NA)) %>% summarise(count = n()) %>% arrange(desc(count))

    ## # A tibble: 84 x 2
    ##    parent_co                 count
    ##    <chr>                     <int>
    ##  1 COCA COLA CO             686023
    ##  2 PEPSICO INC              635406
    ##  3 CADBURY SCHWEPPES P.L.C. 240529
    ##  4 PRIVATE LABEL            153556
    ##  5 ADIRONDACK BEVERAGE CO    91544
    ##  6 DR PEPPER/SNAPPLE GROUP   87666
    ##  7 POLAR CORP                86978
    ##  8 KRIER FOODS INC           17476
    ##  9 COTT BEVERAGES LTD.        5375
    ## 10 NATIONAL BEVERAGES CORP    4878
    ## # ... with 74 more rows

    panel_data %>% group_by(vendor) %>% filter(!vendor %in% c("MISSING", NA)) %>% summarise(count = n()) %>% arrange(desc(count))

    ## # A tibble: 91 x 2
    ##    vendor                   count
    ##    <chr>                    <int>
    ##  1 COCA COLA CO            682203
    ##  2 PEPSICO INC             631696
    ##  3 DR PEPPER/SEVEN-UP CORP 211382
    ##  4 PRIVATE LABEL           153556
    ##  5 ADIRONDACK BEVERAGE CO   91544
    ##  6 DR PEPPER/SNAPPLE GROUP  87666
    ##  7 POLAR CORP               86978
    ##  8 DR PEPPER/SEVEN-UP INC   23654
    ##  9 KRIER FOODS INC          17476
    ## 10 AMERICAN BOTTLING CO.     5493
    ## # ... with 81 more rows

    panel_data %>% group_by(brand) %>% filter(!brand %in% c("MISSING", NA)) %>% summarise(count = n()) %>% arrange(desc(count))

    ## # A tibble: 287 x 2
    ##    brand                    count
    ##    <chr>                    <int>
    ##  1 COKE CLASSIC            180644
    ##  2 DIET COKE               157248
    ##  3 PRIVATE LABEL           153556
    ##  4 PEPSI                   136307
    ##  5 DIET PEPSI              110967
    ##  6 MOUNTAIN DEW             80352
    ##  7 POLAR                    78865
    ##  8 SPRITE                   75579
    ##  9 CAFFEINE FREE DIET COKE  72132
    ## 10 A & W                    61049
    ## # ... with 277 more rows

    panel_data %>% group_by(vol_eq) %>% filter(!vol_eq %in% c("MISSING", NA)) %>% summarise(count = n()) %>% arrange(desc(count))

    ## # A tibble: 70 x 2
    ##    vol_eq  count
    ##     <dbl>  <int>
    ##  1 0.75   752685
    ##  2 0.352  575096
    ##  3 1.5    180902
    ##  4 0.104  132256
    ##  5 0.176   99332
    ##  6 0.375   71097
    ##  7 0.528   65747
    ##  8 0.5     38617
    ##  9 0.352   32837
    ## 10 0.0625  26030
    ## # ... with 60 more rows
…
    ## # A tibble: 7 x 2
    ##   product_type      count
    ##   <chr>             <int>
    ## 1 SODA            1903603
    ## 2 SELTZER WATER     81135
    ## 3 TONIC WATER       28686
    ## 4 CLUB SODA          8271
    ## 5 SPARKLING WATER       5
    ## 6 BITTER LEMON          1
    ## 7 DRINK MIX             1

    panel_data %>% group_by(package) %>% filter(!package %in% c("MISSING", NA)) %>% summarise(count = n()) %>% arrange(desc(count))

    ## # A tibble: 33 x 2
    ##    package               count
    ##    <chr>                 <int>
    ##  1 NR PLASTIC BOTTLE    741193
    ##  2 CAN IN FRIDGE PCK BX 470185
    ##  3 CAN IN BOX           303007
    ##  4 PLASTIC BOTTLE       246706
    ##  5 CAN                  176866
    ##  6 CAN IN CUBE BOX       35231
    ##  7 RETURNABLE PL BOTTLE  10270
    ##  8 NON RETURNABLE GB     10223
    ##  9 NON RETURNABLE BTL     7883
    ## 10 GLASS BOTTLE           4822
    ## # ... with 23 more rows

    panel_data %>% group_by(flavor) %>% filter(!flavor %in% c("MISSING", NA)) %>% summarise(count = n()) %>% arrange(desc(count))

    ## # A tibble: 254 x 2
    ##    flavor       count
    ##    <chr>        <int>
    ##  1 COLA        818321
    ##  2 LEMON LIME  226824
    ##  3 ROOT BEER   141661
    ##  4 GINGER ALE   99592
    ##  5 DEW          81360
    ##  6 ORANGE       77762
    ##  7 PEPPER       61560
    ##  8 CITRUS DEW   47225
    ##  9 NATURAL      30839
    ## 10 CHERRY COLA  27867
    ## # ... with 244 more rows
…
    panel_data %>% group_by(sweetener_type) %>% filter(!sweetener_type %in% c("MISSING", NA)) %>% summarise(count = n()) %>% arrange(desc(count))

    ## # A tibble: 37 x 2
    ##    sweetener_type        count
    ##    <chr>                 <int>
    ##  1 NUTRA SWEET          346034
    ##  2 HGH FRCTS & CORN SYR 342504
    ##  3 SGR &// HG FRCS CR S 326771
    ##  4 ASPARTAME            282647
    ##  5 HGH FRCT CRN SYP SCR 195069
    ##  6 SWEETENED             87576
    ##  7 SUGAR FREE            84982
    ##  8 SPLENDA               31234
    ##  9 UNSWEETENED           19974
    ## 10 SUGAR                 14750
    ## # ... with 27 more rows
…
    upc_total_sales %>% filter(total_sales > 20000)

    ## # A tibble: 27 x 4
    ##    upc         total_sales cum_sales p_sales
    ##    <chr>             <dbl>     <dbl>   <dbl>
    ##  1 14900002891      94359.    94359.  0.0284
    ##  2 14900000639      90266    184625.  0.0556
    ##  3 14900002890      85556.   270180.  0.0814
    ##  4 11200080994      58223.   328403.  0.0989
    ##  5 11200080995      58000.   386403.  0.116 
    ##  6 14900000663      57041    443444.  0.134 
    ##  7 11200000113      51305    494749.  0.149 
    ##  8 11200080996      43870.   538619.  0.162 
    ##  9 14900002934      38894.   577513.  0.174 
    ## 10 14900001063      36876.   614389.  0.185 
    ## # ... with 17 more rows
…
